test/rcp_tb.vcd
$date
	Fri Dec  1 15:46:16 2023
$end
$version
	Icarus Verilog
$end
$timescale
	1ps
$end
$scope module rcp_tb $end
$var wire 1 ! rcp_sat $end
$var wire 24 " rcp_out [11:-12] $end
$var wire 1 # rcp_done $end
$var reg 1 $ clk $end
$var reg 24 % rcp_in [11:-12] $end
$var reg 1 & rcp_start $end
$var reg 1 ' reset $end
$scope module rcp $end
$var wire 1 ( i_abs $end
$var wire 1 $ i_clk $end
$var wire 24 ) i_data [11:-12] $end
$var wire 1 ' i_reset $end
$var wire 1 & i_start $end
$var wire 1 * sat $end
$var wire 24 + result [11:-12] $end
$var parameter 3 , DONE $end
$var parameter 3 - IDLE $end
$var parameter 5 . M $end
$var parameter 32 / N $end
$var parameter 3 0 WS1 $end
$var parameter 3 1 WS2 $end
$var parameter 3 2 WS3 $end
$var reg 1 3 abs $end
$var reg 24 4 o_data [11:-12] $end
$var reg 1 # o_done $end
$var reg 1 ! o_sat $end
$var reg 24 5 operand [11:-12] $end
$var reg 3 6 state [2:0] $end
$scope module rcp $end
$var wire 24 7 a [11:-12] $end
$var wire 1 ( i_abs $end
$var wire 24 8 i_data [11:-12] $end
$var wire 24 9 unsigned_data [11:-12] $end
$var wire 1 : sign $end
$var wire 24 ; scale_data [11:-12] $end
$var wire 24 < sat_data [11:-12] $end
$var wire 5 = rescale_lzc [4:0] $end
$var wire 48 > rescale_data [23:-24] $end
$var wire 24 ? reci [11:-12] $end
$var wire 1 * o_sat $end
$var wire 24 @ o_data [11:-12] $end
$var wire 5 A lzc_cnt [4:0] $end
$var wire 24 B f [11:-12] $end
$var wire 48 C e [23:-24] $end
$var wire 24 D d [11:-12] $end
$var wire 48 E c [23:-24] $end
$var wire 24 F b [11:-12] $end
$var real 1 G FSCALER $end
$var parameter 5 H M $end
$var parameter 32 I N $end
$var parameter 33 J S $end
$var parameter 44 K SCALER $end
$var parameter 24 L n10012 $end
$var parameter 24 M n1466 $end
$var parameter 24 N nSat $end
$scope module lzc $end
$var wire 24 O i_data [11:-12] $end
$var wire 5 P o_lzc [4:0] $end
$scope function f_lzc $end
$var reg 24 Q data [11:-12] $end
$upscope $end
$upscope $end
$upscope $end
$upscope $end
$upscope $end
$enddefinitions $end
$comment Show the parameter values. $end
$dumpall
b11111111111111111111111 N
b1011101110100 M
b1000000000100 L
b1000000000000 K
b1011 J
b1100 I
b1100 H
r4096 G
b11 2
b10 1
b1 0
b1100 /
b1100 .
b0 -
b100 ,
$end
#0
$dumpvars
bx Q
bx P
bx O
bx F
bx E
bx D
bx C
bx B
bx A
bx @
bx ?
bx >
bx =
bx <
bx ;
x:
bx 9
bx 8
bx 7
bx 6
bx 5
bx 4
x3
bx +
x*
b0 )
1(
0'
0&
b0 %
1$
x#
bx "
x!
$end
#20000
0$
#40000
1$
#60000
0$
#80000
1$
#100000
0$
#120000
b11111111111111111111111 +
b11111111111111111111111 @
b11111111111111111111111 <
1*
b101110111100100 ?
b1011101111001 B
b1011101111001110111010000 C
b1000000000100 D
b0 E
b1011101110100 F
b0 7
b0 ;
b101110111100100000000000000 >
b10100 =
b11000 A
b11000 P
b0 Q
b0 9
b0 O
0:
b0 6
0#
0!
b0 "
b0 4
03
b0 5
b0 8
1$
1'
#140000
0$
#160000
1$
#180000
0$
#200000
1$
#220000
0$
#240000
1$
0'
#260000
0$
#280000
1$
#300000
0$
#320000
1$
#340000
0$
#360000
b100000000001 +
b100000000001 @
b10000000000100 ?
b100000000001 <
0*
b100000000001 B
b100001001010 D
b100000000001 >
b100000000001011110001000 C
b111101110100 F
b11110111010000000000000 E
b100000000000 7
b100000000000 ;
b10 =
b1010 A
b1010 P
b10000000000000 Q
b10000000000000 9
b10000000000000 O
b1 6
13
b10000000000000 5
b10000000000000 8
1$
1&
b10000000000000 %
b10000000000000 )
#380000
0$
#400000
b10 6
1$
0&
#420000
0$
#440000
b11 6
1$
#460000
0$
#480000
b100 6
1$
#500000
0$
#520000
b0 6
1#
b100000000001 "
b100000000001 4
1$
